\relax 
\bibstyle{abbrv}
\babel@aux{english}{}
\@writefile{toc}{\contentsline {section}{\numberline {1}TABLE OF CONTENTS}{I}\protected@file@percent }
\newlabel{sec:TOC}{{1}{I}}
\citation{electricity}
\citation{SDSamm}
\citation{SDShyd}
\citation{SDSnit}
\citation{matrix}
\citation{smallscale}
\citation{cornfert}
\citation{corn}
\citation{smallscale}
\citation{UTL}
\citation{web:CPI}
\citation{cornfert}
\citation{yahoo}
\citation{yahoo}
\citation{book:design}
\@writefile{toc}{\contentsline {section}{\numberline {A}ABSTRACT}{1}\protected@file@percent }
\newlabel{sec:abstract}{{A}{1}}
\citation{smallscale}
\citation{smallscale}
\citation{smallscale}
\citation{cornfert}
\citation{cornfert}
\@writefile{toc}{\contentsline {section}{\numberline {B}INTRODUCTION}{2}\protected@file@percent }
\newlabel{sec:Introduction}{{B}{2}}
\@writefile{lof}{\contentsline {figure}{\numberline {1}{\ignorespaces Wind resources in the United States. Darker areas represent greatest potential for successful use of wind energy. \cite  {smallscale} \relax }}{2}\protected@file@percent }
\providecommand*\caption@xref[2]{\@setref\relax\@undefined{#1}}
\newlabel{fig:windmap}{{1}{2}}
\@writefile{lof}{\contentsline {figure}{\numberline {2}{\ignorespaces Tons of fertilizer used for corn production over last three years. \cite  {cornfert} \relax }}{2}\protected@file@percent }
\newlabel{fig:cornfert}{{2}{2}}
\citation{corn}
\citation{corn}
\citation{smallscale}
\citation{smallscale}
\@writefile{lof}{\contentsline {figure}{\numberline {3}{\ignorespaces Corn production in the United States. Darker areas show also coincide with areas of the greatest potential for stranded wind energy as shown in Figure \ref  {fig:windmap}. \cite  {corn} \relax }}{3}\protected@file@percent }
\newlabel{fig:cornmap}{{3}{3}}
\@writefile{lof}{\contentsline {figure}{\numberline {4}{\ignorespaces Schematic drawing of the small-scale downstream Haber Process.\cite  {smallscale} \relax }}{3}\protected@file@percent }
\newlabel{fig:haber}{{4}{3}}
\@writefile{lof}{\contentsline {figure}{\numberline {5}{\ignorespaces Process Flow Diagram for 1 of 5 modules in parallel.\relax }}{4}\protected@file@percent }
\newlabel{fig:pfd}{{5}{4}}
\@writefile{toc}{\contentsline {section}{\numberline {C}PROCESS FLOW DIAGRAM AND MATERIAL BALANCE}{5}\protected@file@percent }
\newlabel{fig:st1}{{1}{5}}
\@writefile{lot}{\contentsline {table}{\numberline {1}{\ignorespaces Stream table for 1 of 5 modules in parallel.(1/2)\relax }}{5}\protected@file@percent }
\newlabel{fig:st2}{{2}{6}}
\@writefile{lot}{\contentsline {table}{\numberline {2}{\ignorespaces Material Balance/Stream Table for 1 of 5 modules in parallel.(2/2)\relax }}{6}\protected@file@percent }
\citation{psa}
\citation{skar}
\@writefile{toc}{\contentsline {section}{\numberline {D}PROCESS DESCRIPTION}{7}\protected@file@percent }
\newlabel{sec:processdesc}{{D}{7}}
\@writefile{toc}{\contentsline {subsection}{\numberline {D.a}Upstream Process}{7}\protected@file@percent }
\newlabel{sub:nitrogen}{{D.a}{7}}
\@writefile{toc}{\contentsline {subsubsection}{\numberline {D.a.1}Nitrogen Production}{7}\protected@file@percent }
\newlabel{subsub:nitrogen}{{D.a.1}{7}}
\citation{r7}
\citation{r7}
\@writefile{toc}{\contentsline {subsubsection}{\numberline {D.a.2}Hydrogen Production}{8}\protected@file@percent }
\newlabel{eqn:h3}{{1}{8}}
\newlabel{eqn:h2}{{2}{8}}
\citation{haberreaction}
\newlabel{eqn:h4}{{3}{9}}
\@writefile{toc}{\contentsline {subsection}{\numberline {D.b}Downstream Process}{9}\protected@file@percent }
\newlabel{sub:down}{{D.b}{9}}
\@writefile{toc}{\contentsline {subsubsection}{\numberline {D.b.1}The Haber-Bosch Process}{9}\protected@file@percent }
\newlabel{eqn:bal}{{4}{9}}
\citation{haber}
\citation{smallscale}
\citation{r6}
\@writefile{toc}{\contentsline {subsection}{\numberline {D.c}Catalyst and Recycling}{10}\protected@file@percent }
\@writefile{toc}{\contentsline {subsection}{\numberline {D.d}Wind Energy}{10}\protected@file@percent }
\citation{electricity}
\citation{electricity}
\@writefile{toc}{\contentsline {section}{\numberline {E}ENERGY BALANCE AND UTILITY REQUIREMENTS}{11}\protected@file@percent }
\newlabel{fig:utlcostsum}{{3}{11}}
\@writefile{lot}{\contentsline {table}{\numberline {3}{\ignorespaces Cost estimates for general utilities in use.\cite  {electricity} \relax }}{11}\protected@file@percent }
\newlabel{fig:utlbal}{{4}{11}}
\@writefile{lot}{\contentsline {table}{\numberline {4}{\ignorespaces Equipment Energy Streams Calculated in Aspen HYSYS. \relax }}{11}\protected@file@percent }
\newlabel{fig:utlsum}{{5}{11}}
\@writefile{lot}{\contentsline {table}{\numberline {5}{\ignorespaces Utilities Required for Manufacturing. \relax }}{11}\protected@file@percent }
\newlabel{tab:utlsumcost}{{6}{12}}
\@writefile{lot}{\contentsline {table}{\numberline {6}{\ignorespaces Predicted Annual Utility Costs Associated with Manufacturing of Ammonia. \relax }}{12}\protected@file@percent }
\@writefile{toc}{\contentsline {section}{\numberline {F}EQUIPMENT LIST AND UNIT DESCRIPTION}{12}\protected@file@percent }
\newlabel{sec:equipcost}{{F}{12}}
\@writefile{toc}{\contentsline {subsection}{\numberline {F.a}Design Philosophy}{12}\protected@file@percent }
\citation{book:design}
\citation{book:design}
\citation{r9}
\citation{r9}
\citation{r20}
\@writefile{toc}{\contentsline {subsection}{\numberline {F.b}Equipment Specification}{14}\protected@file@percent }
\newlabel{sec:equip}{{F.b}{14}}
\newlabel{tab:equip1}{{7}{14}}
\@writefile{lot}{\contentsline {table}{\numberline {7}{\ignorespaces Equipment Summary Table. \relax }}{14}\protected@file@percent }
\@writefile{toc}{\contentsline {subsection}{\numberline {F.c}Equipment Cost Summary}{15}\protected@file@percent }
\newlabel{tab:eqpcostsum}{{8}{15}}
\@writefile{lot}{\contentsline {table}{\numberline {8}{\ignorespaces Cost summary for 5 modular systems. \relax }}{15}\protected@file@percent }
\newlabel{tab:com}{{9}{15}}
\@writefile{lot}{\contentsline {table}{\numberline {9}{\ignorespaces Manufacturing Costs to add to Equipment Costs.\relax }}{15}\protected@file@percent }
\citation{r66}
\@writefile{toc}{\contentsline {section}{\numberline {G}FIXED CAPITAL INVESTMENT SUMMARY}{16}\protected@file@percent }
\@writefile{lof}{\contentsline {figure}{\numberline {6}{\ignorespaces Timeline for AIChE Project.\relax }}{16}\protected@file@percent }
\newlabel{fig:TL}{{6}{16}}
\citation{r8}
\@writefile{toc}{\contentsline {section}{\numberline {H}SAFETY, HEALTH, AND ENVIRONMENTAL CONSIDERATIONS}{17}\protected@file@percent }
\citation{SDSamm}
\citation{SDShyd}
\citation{SDSnit}
\citation{SDSamm}
\citation{SDShyd}
\citation{SDSnit}
\citation{matrix}
\citation{matrix}
\@writefile{toc}{\contentsline {subsection}{\numberline {H.a}Occupational Safety \& Hazard Identification}{18}\protected@file@percent }
\newlabel{tab:materialprop}{{10}{18}}
\@writefile{lot}{\contentsline {table}{\numberline {10}{\ignorespaces Material Properties of the Chemicals Used in Manufacturing \cite  {SDSamm}\cite  {SDShyd}\cite  {SDSnit}. \relax }}{18}\protected@file@percent }
\newlabel{tab:matrix}{{11}{18}}
\@writefile{lot}{\contentsline {table}{\numberline {11}{\ignorespaces Interaction Matrix for Chemicals Involved in Manufacturing.\cite  {matrix} \relax }}{18}\protected@file@percent }
\newlabel{tab:hazid1}{{12}{19}}
\@writefile{lot}{\contentsline {table}{\numberline {12}{\ignorespaces Hazard ID Summary. \relax }}{19}\protected@file@percent }
\@writefile{toc}{\contentsline {subsubsection}{\numberline {H.a.1}Safety Assessment Results}{19}\protected@file@percent }
\newlabel{tab:consq}{{13}{19}}
\@writefile{lot}{\contentsline {table}{\numberline {13}{\ignorespaces Potential Consequence Summary. \relax }}{19}\protected@file@percent }
\newlabel{tab:impact}{{14}{20}}
\@writefile{lot}{\contentsline {table}{\numberline {14}{\ignorespaces Risk Matrix. \relax }}{20}\protected@file@percent }
\@writefile{toc}{\contentsline {section}{\numberline {I}PROCESS SAFETY CONSIDERATIONS}{20}\protected@file@percent }
\newlabel{sec:processsafety}{{I}{20}}
\@writefile{toc}{\contentsline {subsection}{\numberline {I.a}Process Safety}{20}\protected@file@percent }
\citation{r9}
\newlabel{tab:inherent}{{15}{22}}
\@writefile{lot}{\contentsline {table}{\numberline {15}{\ignorespaces Inherent Design Summary. \relax }}{22}\protected@file@percent }
\@writefile{toc}{\contentsline {subsection}{\numberline {I.b}Existing Safeguards}{23}\protected@file@percent }
\@writefile{toc}{\contentsline {subsection}{\numberline {I.c}Opportunities for Additional ISD in Detailed Design}{23}\protected@file@percent }
\newlabel{tab:leak}{{16}{23}}
\@writefile{lot}{\contentsline {table}{\numberline {16}{\ignorespaces Potential Diameter's for Piping. \relax }}{23}\protected@file@percent }
\citation{r17}
\citation{r18}
\citation{r15}
\citation{r8}
\@writefile{toc}{\contentsline {subsection}{\numberline {I.d}Industrial Health}{24}\protected@file@percent }
\newlabel{tab:BACT}{{17}{24}}
\@writefile{lot}{\contentsline {table}{\numberline {17}{\ignorespaces List of Waste Streams and BACT to treat waste prior to discharge. \relax }}{24}\protected@file@percent }
\newlabel{tab:hazhealth}{{18}{25}}
\@writefile{lot}{\contentsline {table}{\numberline {18}{\ignorespaces Key health risks and steps taken to mitigate them. \relax }}{25}\protected@file@percent }
\citation{UTL}
\citation{web:CPI}
\citation{UTL}
\citation{web:CPI}
\@writefile{toc}{\contentsline {section}{\numberline {J}ECONOMIC ANALYSIS}{26}\protected@file@percent }
\@writefile{toc}{\contentsline {subsection}{\numberline {J.a}Utility/Revenue Streams}{26}\protected@file@percent }
\@writefile{toc}{\contentsline {subsubsection}{\numberline {J.a.1}Utility Costs}{26}\protected@file@percent }
\citation{cornfert}
\citation{cornfert}
\@writefile{lof}{\contentsline {figure}{\numberline {7}{\ignorespaces Common Utility prices over past 5 years. \cite  {UTL}\cite  {web:CPI} \relax }}{27}\protected@file@percent }
\newlabel{fig:utlcorr}{{7}{27}}
\@writefile{toc}{\contentsline {subsubsection}{\numberline {J.a.2}Ammonia Costs}{27}\protected@file@percent }
\@writefile{lof}{\contentsline {figure}{\numberline {8}{\ignorespaces Comparing Corn Price per bushel to cost per ton of Anhydrous Ammonia. \cite  {cornfert} \relax }}{27}\protected@file@percent }
\newlabel{fig:pricecorr}{{8}{27}}
\citation{yahoo}
\citation{yahoo}
\citation{yahoo}
\citation{yahoo}
\citation{web:CEPCI}
\@writefile{toc}{\contentsline {subsection}{\numberline {J.b}Capital Investments}{28}\protected@file@percent }
\@writefile{lof}{\contentsline {figure}{\numberline {9}{\ignorespaces Comparing Steel Commodity prices against an Industrial Market Average and price of Crude Oil over the last year. \cite  {yahoo} \relax }}{28}\protected@file@percent }
\newlabel{fig:steelcorr}{{9}{28}}
\@writefile{lof}{\contentsline {figure}{\numberline {10}{\ignorespaces Comparing Steel Commodity prices against Chemical Engineering Plant Cost Index over last five years. \cite  {yahoo} \relax }}{28}\protected@file@percent }
\newlabel{fig:cepcicorr}{{10}{28}}
\@writefile{toc}{\contentsline {subsection}{\numberline {J.c}Net Present Value Analysis}{29}\protected@file@percent }
\@writefile{lof}{\contentsline {figure}{\numberline {11}{\ignorespaces Cumulative Net Present Value (NPV) through the lifetime of the project. (8\% ROR*) \relax }}{29}\protected@file@percent }
\newlabel{fig:npvcum}{{11}{29}}
\@writefile{toc}{\contentsline {subsection}{\numberline {J.d}Sensitivity Analysis}{30}\protected@file@percent }
\newlabel{tab:perc}{{19}{30}}
\@writefile{lot}{\contentsline {table}{\numberline {19}{\ignorespaces Summarized sensitivity through variables selected. \relax }}{30}\protected@file@percent }
\@writefile{lof}{\contentsline {figure}{\numberline {12}{\ignorespaces Examining Rate of Return Sensitivity through tornado style chart. \relax }}{30}\protected@file@percent }
\newlabel{fig:tornado}{{12}{30}}
\@writefile{toc}{\contentsline {subsection}{\numberline {J.e}Cash Flow Analysis}{31}\protected@file@percent }
\@writefile{lof}{\contentsline {figure}{\numberline {13}{\ignorespaces Cash Flow Diagram for AIChE Project.\relax }}{31}\protected@file@percent }
\newlabel{fig:cashflow}{{13}{31}}
\@writefile{toc}{\contentsline {section}{\numberline {K}CONCLUSIONS}{32}\protected@file@percent }
\@writefile{toc}{\contentsline {section}{\numberline {L}RECOMMENDATIONS}{32}\protected@file@percent }
\@writefile{toc}{\contentsline {section}{\numberline {M}ACKNOWLEDGMENTS}{32}\protected@file@percent }
\bibdata{2020design_bib}
\bibcite{r18}{1}
\bibcite{SDSamm}{2}
\bibcite{UTL}{3}
\bibcite{web:CEPCI}{4}
\bibcite{cornfert}{5}
\bibcite{haber}{6}
\bibcite{SDShyd}{7}
\bibcite{r20}{8}
\bibcite{matrix}{9}
\bibcite{skar}{10}
\bibcite{electricity}{11}
\bibcite{SDSnit}{12}
\bibcite{psa}{13}
\bibcite{web:CPI}{14}
\bibcite{corn}{15}
\bibcite{r9}{16}
\bibcite{r17}{17}
\bibcite{yahoo}{18}
\bibcite{r15}{19}
\bibcite{r8}{20}
\bibcite{smallscale}{21}
\bibcite{r6}{22}
\bibcite{book:design}{23}
\bibcite{r7}{24}
\bibcite{r66}{25}
\@writefile{toc}{\contentsline {section}{\numberline {A}APPENDIX (Aspen Stream Tables and PFDs)}{34}\protected@file@percent }
\@writefile{lof}{\contentsline {figure}{\numberline {14}{\ignorespaces Aspen HYSYS Simulation for Ammonia Production.\relax }}{35}\protected@file@percent }
\newlabel{fig:aspena}{{14}{35}}
\@writefile{lof}{\contentsline {figure}{\numberline {15}{\ignorespaces Aspen HYSYS Simulation for Hydrogen Production.\relax }}{41}\protected@file@percent }
\newlabel{fig:aspenh}{{15}{41}}
\@writefile{toc}{\contentsline {section}{\numberline {B}APPENDIX (Equipment Costing)}{46}\protected@file@percent }
\newlabel{tab:psaquote}{{20}{46}}
\@writefile{lot}{\contentsline {table}{\numberline {20}{\ignorespaces Quote for Pressure Swing Adsorption unit that will be used to feed Nitrogen into all 5 modular systems. Note: The cost of Carbon Molecular Sieve (CMS) is included in the PSA Generator cost.\relax }}{46}\protected@file@percent }
\newlabel{fig:op12}{{21}{46}}
\@writefile{lot}{\contentsline {table}{\numberline {21}{\ignorespaces Energy requirements for PSA opperation.\relax }}{46}\protected@file@percent }
\newlabel{fig:op1}{{22}{47}}
\@writefile{lot}{\contentsline {table}{\numberline {22}{\ignorespaces Compressor operating costs/Revenue generated from wind turbines to offset electrolysis costs.\relax }}{47}\protected@file@percent }
\newlabel{fig:op2}{{23}{47}}
\@writefile{lot}{\contentsline {table}{\numberline {23}{\ignorespaces Price of electricity driving electrolysis process.\relax }}{47}\protected@file@percent }
\newlabel{fig:op3}{{24}{47}}
\@writefile{lot}{\contentsline {table}{\numberline {24}{\ignorespaces Calculations for electrolysis electrical demands.\relax }}{47}\protected@file@percent }
\newlabel{fig:op4}{{25}{47}}
\@writefile{lot}{\contentsline {table}{\numberline {25}{\ignorespaces Operating maintenance for wind turbines converted to present day value.\relax }}{47}\protected@file@percent }
\newlabel{fig:op5}{{26}{48}}
\@writefile{lot}{\contentsline {table}{\numberline {26}{\ignorespaces Anode and Cathode costing for Electrolysis.\relax }}{48}\protected@file@percent }
\newlabel{fig:op6}{{27}{48}}
\@writefile{lot}{\contentsline {table}{\numberline {27}{\ignorespaces Steam boiler sizing and operating cost estimations based on sixth-tenths rule.\relax }}{48}\protected@file@percent }
\newlabel{fig:op7}{{28}{48}}
\@writefile{lot}{\contentsline {table}{\numberline {28}{\ignorespaces Waste treatment sizing and cost estimation.\relax }}{48}\protected@file@percent }
\newlabel{fig:op8}{{29}{48}}
\@writefile{lot}{\contentsline {table}{\numberline {29}{\ignorespaces Reactor sizing and estimation based on volume of catalyst and cooling required.\relax }}{48}\protected@file@percent }
\newlabel{fig:op9}{{30}{49}}
\@writefile{lot}{\contentsline {table}{\numberline {30}{\ignorespaces Refrigeration system sizing based on sixth-tenths rule.\relax }}{49}\protected@file@percent }
\newlabel{fig:op10}{{31}{49}}
\@writefile{lot}{\contentsline {table}{\numberline {31}{\ignorespaces Feed pre-heater sizing and utility costs with high-pressure steam.\relax }}{49}\protected@file@percent }
\newlabel{fig:op11}{{32}{49}}
\@writefile{lot}{\contentsline {table}{\numberline {32}{\ignorespaces Tank and separator costing based on 5-minute hold-up times or volume requirements.\relax }}{49}\protected@file@percent }
\@writefile{toc}{\contentsline {section}{\numberline {C}APPENDIX (Aspen Report)}{50}\protected@file@percent }
